/* TEAM */

                            
Tu cargo dentro del proyecto: Daniel Ortiz Garcia, Desarollador

                            
Site: daniortizgar@gmail.com

                            
Twitter: @daorgar

                            
Location: Ontinyent, Valencia, Espanya.
							
/* THANKS */

							
Name: Pere Crespo, Pep Muñoz
                        

                            
/* SITE */

                            
Last update: 2018/11/08 

                            
Standards: HTML5, CSS3.

                            
Components: Google Maps.

                            
Software: Visual Studio code, Opera.