<?xml version="1.0" encoding="UTF-8" standalone="no"?>
<!-- Created with Inkscape (http://www.inkscape.org/) -->

<svg
   xmlns:dc="http://purl.org/dc/elements/1.1/"
   xmlns:cc="http://creativecommons.org/ns#"
   xmlns:rdf="http://www.w3.org/1999/02/22-rdf-syntax-ns#"
   xmlns:svg="http://www.w3.org/2000/svg"
   xmlns="http://www.w3.org/2000/svg"
   xmlns:sodipodi="http://sodipodi.sourceforge.net/DTD/sodipodi-0.dtd"
   xmlns:inkscape="http://www.inkscape.org/namespaces/inkscape"
   width="65.005638mm"
   height="10.397391mm"
   viewBox="0 0 65.00564 10.397391"
   version="1.1"
   id="svg8"
   inkscape:version="0.92.3 (2405546, 2018-03-11)"
   sodipodi:docname="daniortiz.svg">
  <defs
     id="defs2" />
  <sodipodi:namedview
     id="base"
     pagecolor="#ffffff"
     bordercolor="#666666"
     borderopacity="1.0"
     inkscape:pageopacity="0.0"
     inkscape:pageshadow="2"
     inkscape:zoom="2.8284272"
     inkscape:cx="23.073675"
     inkscape:cy="-12.982212"
     inkscape:document-units="mm"
     inkscape:current-layer="layer1"
     showgrid="false"
     fit-margin-top="0"
     fit-margin-left="0"
     fit-margin-right="0"
     fit-margin-bottom="0"
     inkscape:window-width="1920"
     inkscape:window-height="1043"
     inkscape:window-x="0"
     inkscape:window-y="0"
     inkscape:window-maximized="1" />
  <metadata
     id="metadata5">
    <rdf:RDF>
      <cc:Work
         rdf:about="">
        <dc:format>image/svg+xml</dc:format>
        <dc:type
           rdf:resource="http://purl.org/dc/dcmitype/StillImage" />
        <dc:title></dc:title>
      </cc:Work>
    </rdf:RDF>
  </metadata>
  <g
     inkscape:label="Capa 1"
     inkscape:groupmode="layer"
     id="layer1"
     transform="translate(9.8440427e-8,-79.117512)">
    <g
       aria-label="Dani Ortiz"
       transform="matrix(0.64821174,0,0,0.65190139,-3.4448839e-8,27.686862)"
       style="font-style:normal;font-weight:normal;font-size:20.60834885px;line-height:1.25;font-family:sans-serif;letter-spacing:0px;word-spacing:0px;fill:#4a9df5;fill-opacity:1;stroke:none;stroke-width:0.51520878"
       id="text12">
      <path
         d="m 2.0326593,81.197648 v 11.68276 h 2.4552916 q 3.1093651,0 4.548327,-1.408773 1.4490241,-1.408774 1.4490241,-4.447701 0,-3.018801 -1.4490241,-4.417512 Q 7.597316,81.197648 4.4879509,81.197648 Z M -9.8720193e-8,79.527245 H 4.1760081 q 4.3671989,0 6.4099209,1.821343 2.042722,1.811281 2.042722,5.675346 0,3.884191 -2.052785,5.705534 -2.0527843,1.821344 -6.3998579,1.821344 H -9.8720193e-8 Z"
         style="fill:#4a9df5;stroke-width:0.51520878;fill-opacity:1"
         id="path33"
         inkscape:connector-curvature="0" />
      <path
         d="m 20.900166,88.885528 q -2.243975,0 -3.109365,0.513197 -0.86539,0.513196 -0.86539,1.750904 0,0.986142 0.644011,1.569777 0.654074,0.573572 1.77103,0.573572 1.539589,0 2.465355,-1.086768 0.935828,-1.096831 0.935828,-2.908112 v -0.41257 z m 3.693,-0.764763 v 6.430047 h -1.851531 v -1.710654 q -0.633948,1.026392 -1.579839,1.519463 -0.945891,0.483008 -2.314415,0.483008 -1.730779,0 -2.757171,-0.966016 -1.01633,-0.976079 -1.01633,-2.606232 0,-1.901844 1.267897,-2.867861 1.277959,-0.966016 3.803689,-0.966016 h 2.596169 v -0.181128 q 0,-1.277959 -0.845264,-1.972284 -0.835202,-0.704387 -2.354665,-0.704387 -0.966017,0 -1.88172,0.231442 -0.915703,0.231441 -1.760967,0.694324 v -1.710654 q 1.01633,-0.392444 1.972283,-0.583635 0.955954,-0.201253 1.861594,-0.201253 2.445229,0 3.65275,1.267896 1.20752,1.267897 1.20752,3.84394 z"
         style="fill:#4a9df5;stroke-width:0.51520878;fill-opacity:1"
         id="path35"
         inkscape:connector-curvature="0" />
      <path
         d="m 37.785327,87.748447 v 6.802365 h -1.851531 v -6.741989 q 0,-1.599965 -0.623886,-2.394916 -0.623886,-0.794951 -1.871657,-0.794951 -1.499338,0 -2.364727,0.955954 -0.86539,0.955954 -0.86539,2.606231 v 6.369671 H 28.346542 V 83.280621 h 1.861594 v 1.750905 q 0.664136,-1.01633 1.559714,-1.519464 0.90564,-0.503133 2.082973,-0.503133 1.942095,0 2.9383,1.20752 0.996204,1.197458 0.996204,3.531998 z"
         style="fill:#4a9df5;stroke-width:0.51520878;fill-opacity:1"
         id="path37"
         inkscape:connector-curvature="0" />
      <path
         d="m 41.498451,83.280621 h 1.851532 v 11.270191 h -1.851532 z m 0,-4.387324 h 1.851532 v 2.344602 h -1.851532 z"
         style="fill:#4a9df5;stroke-width:0.51520878;fill-opacity:1"
         id="path39"
         inkscape:connector-curvature="0" />
      <path
         d="m 59.95339,80.905831 q -2.213788,0 -3.521935,1.650278 -1.298084,1.650278 -1.298084,4.498013 0,2.837673 1.298084,4.487951 1.308147,1.650278 3.521935,1.650278 2.213787,0 3.501809,-1.650278 1.298084,-1.650278 1.298084,-4.487951 0,-2.847735 -1.298084,-4.498013 -1.288022,-1.650278 -3.501809,-1.650278 z m 0,-1.650278 q 3.159678,0 5.05146,2.123223 1.891782,2.113161 1.891782,5.675346 0,3.552123 -1.891782,5.675346 -1.891782,2.113161 -5.05146,2.113161 -3.169742,0 -5.071586,-2.113161 -1.891782,-2.11316 -1.891782,-5.675346 0,-3.562185 1.891782,-5.675346 1.901844,-2.123223 5.071586,-2.123223 z"
         style="fill:#4a9df5;stroke-width:0.51520878;fill-opacity:1"
         id="path41"
         inkscape:connector-curvature="0" />
      <path
         d="m 76.52661,85.0114 q -0.311942,-0.181128 -0.684261,-0.261629 -0.362256,-0.09056 -0.805014,-0.09056 -1.569776,0 -2.415041,1.026392 -0.835201,1.01633 -0.835201,2.928237 v 5.936976 H 69.925499 V 83.280621 h 1.861594 v 1.750905 q 0.583635,-1.026393 1.519463,-1.519464 0.935828,-0.503133 2.274163,-0.503133 0.191191,0 0.422633,0.03019 0.231441,0.02012 0.513196,0.07044 z"
         style="fill:#4a9df5;stroke-width:0.51520878;fill-opacity:1"
         id="path43"
         inkscape:connector-curvature="0" />
      <path
         d="m 80.320233,80.080692 v 3.199929 h 3.813752 v 1.438962 h -3.813752 v 6.118103 q 0,1.378586 0.372319,1.77103 0.382381,0.392445 1.539588,0.392445 h 1.901845 v 1.549651 H 82.23214 q -2.143349,0 -2.958425,-0.794951 -0.815076,-0.805014 -0.815076,-2.918175 v -6.118103 h -1.358461 v -1.438962 h 1.358461 v -3.199929 z"
         style="fill:#4a9df5;stroke-width:0.51520878;fill-opacity:1"
         id="path45"
         inkscape:connector-curvature="0" />
      <path
         d="m 86.57922,83.280621 h 1.851531 V 94.550812 H 86.57922 Z m 0,-4.387324 h 1.851531 v 2.344602 H 86.57922 Z"
         style="fill:#4a9df5;stroke-width:0.51520878;fill-opacity:1"
         id="path47"
         inkscape:connector-curvature="0" />
      <path
         d="m 91.489798,83.280621 h 8.794772 v 1.690529 l -6.963366,8.100449 h 6.963366 v 1.479213 h -9.046339 v -1.690529 l 6.963368,-8.100449 h -6.711801 z"
         style="fill:#4a9df5;stroke-width:0.51520878;fill-opacity:1"
         id="path49"
         inkscape:connector-curvature="0" />
    </g>
  </g>
</svg>
